Understanding student goals - a Topic Modeling approach
…
It shows that we have 213 observations and 3 variables.

a. READ Data

Let’s read our data into our Environment and assign it to a variable
name soar_data1.

soar_data1 <- read_csv("data/Soar-resposes.csv")

soar_data1

# A tibble: 215 x 3
   Timestamp          Department             Goal                     
   <chr>              <chr>                  <chr>                    
 1 11/9/2021 10:00:18 Distance Graduate TELS Deeper understanding of ~
 2 11/9/2021 10:00:46 Distance Graduate TELS Choose a dissertation to~
 3 11/9/2021 10:01:05 Distance Graduate TELS 4.0 Baby                 
 4 11/9/2021 10:01:16 Distance Graduate TELS To Graduate              
 5 11/9/2021 10:01:28 Distance Graduate TELS Finish my Book           
 6 11/9/2021 10:02:00 Graduate TELS          Learn about 3 topics and~
 7 11/9/2021 10:02:25 Graduate TELS          Reamin mentally, physica~
 8 11/9/2021 10:03:02 Graduate TELS          Balance of learning, bei~
 9 11/9/2021 10:03:22 Graduate TELS          To stay healthy and lear~
10 11/9/2021 10:03:39 Graduate TELS          Better time management a~
# ... with 205 more rows
…
wordcloud2(soardata1_df_counts)

Common Words by Department

It is hard to visualize the data in a table form.

soardata1_df_counts <- soardata2_df %>% # create new variable for counts
  count(word, sort = TRUE)

soardata1_df_counts 

# A tibble: 511 x 3
# Groups:   Department [7]
   Department         word            n
   <chr>              <chr>       <int>
 1 Undergraduate TELS students       20
 2 Undergraduate TELS learn          19
 3 Undergraduate TELS field          14
 4 Undergraduate TELS teacher        13
 5 Undergraduate TELS classroom      12
 6 Undergraduate TELS connections     9
 7 Undergraduate TELS placement       9
 8 Undergraduate STEM graduate        8
 9 Undergraduate TELS semester        8
10 Undergraduate TELS teaching        8
# ... with 501 more rows
…
words_by_Department <- soardata1_df_counts %>%
  count(Department, word, sort = TRUE) %>%
  ungroup()

total_words <- words_by_Department %>% 
  group_by(Department) %>% 
  summarize(total = sum(n))

words_by_Department <- left_join(words_by_Department, total_words)

words_by_Department

# A tibble: 511 x 4
   Department             word         n total
   <chr>                  <chr>    <int> <int>
 1 Distance ELPHD         2023         1     4
 2 Distance ELPHD         dr           1     4
 3 Distance ELPHD         kamoru       1     4
 4 Distance ELPHD         mercedes     1     4
 5 Distance Graduate TELS 4.0          1    18
 6 Distance Graduate TELS baby         1    18
 7 Distance Graduate TELS book         1    18
 8 Distance Graduate TELS choose       1    18
 9 Distance Graduate TELS curious      1    18
10 Distance Graduate TELS deeper       1    18
# ... with 501 more rows
…
freq_by_rank <- words_by_Department %>% 
  group_by(Department) %>% 
  mutate(rank = row_number(), 
         `term frequency` = n/total) %>%
  ungroup()

tf_idf <- words_by_Department %>%
  bind_tf_idf(word, Department, n) 

tf_idf

# A tibble: 511 x 7
   Department             word         n total     tf   idf tf_idf
   <chr>                  <chr>    <int> <int>  <dbl> <dbl>  <dbl>
 1 Distance ELPHD         2023         1     4 0.25    1.95 0.486 
 2 Distance ELPHD         dr           1     4 0.25    1.95 0.486 
 3 Distance ELPHD         kamoru       1     4 0.25    1.95 0.486 
 4 Distance ELPHD         mercedes     1     4 0.25    1.95 0.486 
 5 Distance Graduate TELS 4.0          1    18 0.0556  1.25 0.0696
 6 Distance Graduate TELS baby         1    18 0.0556  1.95 0.108 
 7 Distance Graduate TELS book         1    18 0.0556  1.95 0.108 
 8 Distance Graduate TELS choose       1    18 0.0556  1.95 0.108 
 9 Distance Graduate TELS curious      1    18 0.0556  1.95 0.108 
10 Distance Graduate TELS deeper       1    18 0.0556  1.95 0.108 
# ... with 501 more rows

Let’s look at high frequency words in each department

tf_idf %>%
  select(-total) %>%
  arrange(desc(tf_idf))

# A tibble: 511 x 6
   Department             word         n     tf   idf tf_idf
   <chr>                  <chr>    <int>  <dbl> <dbl>  <dbl>
 1 Distance ELPHD         2023         1 0.25    1.95  0.486
 2 Distance ELPHD         dr           1 0.25    1.95  0.486
 3 Distance ELPHD         kamoru       1 0.25    1.95  0.486
 4 Distance ELPHD         mercedes     1 0.25    1.95  0.486
 5 Distance Graduate TELS baby         1 0.0556  1.95  0.108
 6 Distance Graduate TELS book         1 0.0556  1.95  0.108
 7 Distance Graduate TELS choose       1 0.0556  1.95  0.108
 8 Distance Graduate TELS curious      1 0.0556  1.95  0.108
 9 Distance Graduate TELS deeper       1 0.0556  1.95  0.108
10 Distance Graduate TELS fills        1 0.0556  1.95  0.108
# ... with 501 more rows
…
Bigram

By tokenizing n-grams we can check out the bigrams to see if they are
of any help with noticing themes.

soardata2_bigrams <- soar_data2 %>%
  unnest_tokens(output = word, input = Goal, token = "ngrams", n = 2) %>%
  anti_join(stop_words, by = "word")

soardata2_bigrams_counts <- soardata2_bigrams %>%
  count(word, sort = TRUE)

soardata2_bigrams_counts

# A tibble: 1,618 x 3
# Groups:   Department [7]
   Department         word                 n
   <chr>              <chr>            <int>
 1 Undergraduate TELS to be               15
 2 Undergraduate TELS in my               12
 3 Undergraduate TELS i want              11
 4 Undergraduate TELS want to             10
 5 Undergraduate TELS field placement      9
 6 Undergraduate TELS in the               9
 7 Undergraduate TELS my field             9
 8 Undergraduate TELS connections with     8
 9 Undergraduate TELS how to               8
10 Undergraduate TELS of my                8
# ... with 1,608 more rows
…
soardata2_bigrams2 <- soar_data2 %>%
  unnest_tokens(bigram, Goal, token = "ngrams", n = 2) %>%
  separate(bigram, c("word1", "word2"), sep = " ") %>%
  filter(!word1 %in% stop_words$word,
         !word2 %in% stop_words$word) %>%
  unite(bigram, word1, word2, sep = " ") %>% 
  count(bigram, sort = TRUE)

soardata2_bigrams2

# A tibble: 248 x 3
# Groups:   Department [7]
   Department         bigram                    n
   <chr>              <chr>                 <int>
 1 Undergraduate TELS field placement           9
 2 Undergraduate TELS growth mindset            3
 3 Undergraduate TELS mental health             3
 4 Graduate TELS      time management           2
 5 Undergraduate STEM comfort zone              2
 6 Undergraduate STEM design process            2
 7 Undergraduate STEM time management           2
 8 Undergraduate TELS build relationships       2
 9 Undergraduate TELS classroom finish          2
10 Undergraduate TELS culturally responsive     2
# ... with 238 more rows
…
Running a trigram did not produce a result that pulls out any new
themes.

soardata2_trigrams <- soar_data2 %>%
  unnest_tokens(trigram, Goal, token = "ngrams", n = 3) %>%
  separate(trigram, c("word1", "word2", "word3"), sep = " ") %>%
  filter(!word1 %in% stop_words$word,
         !word2 %in% stop_words$word,
         !word3 %in% stop_words$word) %>%
  unite(trigram, word1, word2, word3, sep = " ") %>% 
  count(trigram, sort = TRUE)

soardata2_trigrams

# A tibble: 84 x 3
# Groups:   Department [7]
   Department             trigram                             n
   <chr>                  <chr>                           <int>
 1 Undergraduate TELS     field placement classroom           2
 2 Undergraduate TELS     field placement students            2
 3 Distance ELPHD         dr mercedes kamoru                  1
 4 Distance ELPHD         mercedes kamoru 2023                1
 5 Distance Graduate TELS qualitative research methods        1
 6 Distance Graduate TELS research methods choose             1
 7 Distance Graduate TELS void 4.0 baby                       1
 8 ELPHD                  culture responsive teaching         1
 9 ELPHD                  incorporate culture responsive      1
10 ELPHD                  spiritally emotionally mentally     1
# ... with 74 more rows
…
nrc from Saif Mohammad and Peter Turney.
-categorizes words in a binary fashion (“yes”/“no”) into categories of
positive, negative, anger, anticipation, disgust, fear, joy, sadness,
surprise, and trust.

It will be intersting to see if what emotions the students have in
their written goals. Additionally comparing a lexicon for positive and
negative sentiment.

Load Sentiment Lexicons

get_sentiments("afinn")

# A tibble: 2,477 x 2
   word       value
   <chr>      <dbl>
 1 abandon       -2
 2 abandoned     -2
 3 abandons      -2
 4 abducted      -2
 5 abduction     -2
 6 abductions    -2
 7 abhor         -3
 8 abhorred      -3
 9 abhorrent     -3
10 abhors        -3
# ... with 2,467 more rows

get_sentiments("bing")

# A tibble: 6,786 x 2
   word        sentiment
   <chr>       <chr>    
 1 2-faces     negative 
 2 abnormal    negative 
 3 abolish     negative 
 4 abominable  negative 
 5 abominably  negative 
 6 abominate   negative 
 7 abomination negative 
 8 abort       negative 
 9 aborted     negative 
10 aborts      negative 
# ... with 6,776 more rows

get_sentiments("nrc")

# A tibble: 13,875 x 2
   word        sentiment
   <chr>       <chr>    
 1 abacus      trust    
 2 abandon     fear     
 3 abandon     negative 
 4 abandon     sadness  
 5 abandoned   anger    
 6 abandoned   fear     
 7 abandoned   negative 
 8 abandoned   sadness  
 9 abandonment anger    
10 abandonment fear     
# ... with 13,865 more rows
…
bing_word_counts <- soardata2_df %>%
  inner_join(get_sentiments("bing")) %>%
  count(word, sentiment, sort = TRUE) %>%
  ungroup()

bing_word_counts

# A tibble: 83 x 4
   Department         word        sentiment     n
   <chr>              <chr>       <chr>     <int>
 1 Undergraduate TELS positive    positive      7
 2 Undergraduate TELS confident   positive      4
 3 Undergraduate TELS strong      positive      4
 4 Undergraduate TELS successful  positive      4
 5 Undergraduate TELS comfortable positive      3
 6 Undergraduate TELS gain        positive      3
 7 Undergraduate TELS motivated   positive      3
 8 Graduate TELS      healthy     positive      2
 9 Undergraduate STEM comfort     positive      2
10 Undergraduate STEM support     positive      2
# ... with 73 more rows
…
Let’s quickly look at the most common joy words in the soar data that
are associated with joy in the nrc.

nrc_joy <- get_sentiments("nrc") %>% 
  filter(sentiment == "joy")

joysoar_nrc <- soardata2_df %>%
  inner_join(nrc_joy) %>%
  count(word, sort = TRUE)

joysoar_nrc

# A tibble: 53 x 3
# Groups:   Department [6]
   Department         word           n
   <chr>              <chr>      <int>
 1 Undergraduate TELS create         5
 2 Undergraduate TELS confident      4
 3 Undergraduate TELS grow           4
 4 Undergraduate TELS successful     4
 5 Undergraduate TELS teach          4
 6 Undergraduate TELS gain           3
 7 Graduate TELS      grow           2
 8 Undergraduate STEM comfort        2
 9 Undergraduate STEM grow           2
10 Undergraduate TELS excited        2
# ... with 43 more rows
…
We can see that overall most of the sentiments in the goals data are
positive for most Departments. After looking at the phrases that
correlated with the negative words I am not sure with hand coding those
would be considered negative. The ncr sentiment showed
a larger number of words vs Bing.

soar_nrc_sentiment <- soardata2_df%>%
  inner_join(get_sentiments("nrc")) %>%
  count(Department, index = number %/% 5, sentiment) %>%
  pivot_wider(names_from = sentiment, values_from = n, values_fill = 0) %>% 
  mutate(sentiment = positive - negative)
  
soar_nrc_sentiment

# A tibble: 140 x 13
# Groups:   Department [6]
   Department   index positive trust   joy anticipation surprise  fear
   <chr>        <dbl>    <int> <int> <int>        <int>    <int> <int>
 1 Distance Gr~     0        1     1     0            0        0     0
 2 Distance Gr~     3        1     0     1            0        0     0
 3 ELPHD            0        1     1     1            1        0     0
 4 ELPHD            1        1     1     1            0        1     0
 5 ELPHD            2        2     1     0            1        0     0
 6 ELPHD            4        1     0     0            0        0     0
 7 Graduate ST~     0        2     1     0            0        0     0
 8 Graduate ST~     1        3     1     1            0        0     0
 9 Graduate ST~     2        2     2     2            2        0     0
10 Graduate ST~     4        0     0     0            1        0     0
# ... with 130 more rows, and 5 more variables: anger <int>,
#   disgust <int>, negative <int>, sadness <int>, sentiment <int>
…
Let us see what the Bing visualization looks like.

soar_bing_sentiment <- soardata2_df%>%
  inner_join(get_sentiments("bing")) %>%
  count(Department, index = number %/% 5, sentiment) %>%
  pivot_wider(names_from = sentiment, values_from = n, values_fill = 0) %>% 
  mutate(sentiment = positive - negative)
  
soar_bing_sentiment

# A tibble: 85 x 5
# Groups:   Department [5]
   Department    index positive negative sentiment
   <chr>         <dbl>    <int>    <int>     <int>
 1 ELPHD             0        2        0         2
 2 ELPHD             1        1        0         1
 3 ELPHD             2        1        0         1
 4 ELPHD             3        1        0         1
 5 ELPHD             4        1        0         1
 6 Graduate STEM     1        1        0         1
 7 Graduate STEM     2        2        0         2
 8 Graduate TELS     0        1        0         1
 9 Graduate TELS     2        1        0         1
10 Graduate TELS     3        1        0         1
# ... with 75 more rows
…
A text corpus with 199 documents, and an 449 word dictionary.

Stem did not work so we must do a different code to ‘Stem’ the
corpus.

#stemming the text
stemmed_soar_data <- soar_data2 %>%
  unnest_tokens(output = word, input = Goal) %>%
  anti_join(stop_words, by = "word") %>%
  mutate(stem = wordStem(word)) # create a new variable named stem for the stopwords.

stemmed_soar_data

# A tibble: 838 x 3
# Groups:   Department [7]
   Department             word          stem      
   <chr>                  <chr>         <chr>     
 1 Distance Graduate TELS deeper        deeper    
 2 Distance Graduate TELS understanding understand
 3 Distance Graduate TELS quantitative  quantit   
 4 Distance Graduate TELS qualitative   qualit    
 5 Distance Graduate TELS research      research  
 6 Distance Graduate TELS methods       method    
 7 Distance Graduate TELS choose        choos     
 8 Distance Graduate TELS dissertation  dissert   
 9 Distance Graduate TELS topic         topic     
10 Distance Graduate TELS makes         make      
# ... with 828 more rows
…
#running lda to find 8 topics
lda_soar_data <- LDA(cast_dtm, k = 10, control = list(seed = 0713))

lda_soar_data

A LDA_VEM topic model with 10 topics.

Looking at the Beta occurance for each term

soar_topics <- tidy(lda_soar_data, matrix = "beta")
soar_topics

# A tibble: 3,810 x 3
   topic term       beta
   <int> <chr>     <dbl>
 1     1 dr    3.93e-216
 2     2 dr    1.74e-216
 3     3 dr    1.11e-  2
 4     4 dr    2.96e-217
 5     5 dr    9.99e-218
 6     6 dr    3.21e-218
 7     7 dr    6.03e- 45
 8     8 dr    6.83e- 85
 9     9 dr    2.77e-217
10    10 dr    2.01e-225
# ... with 3,800 more rows

Let’s see how many times the term might occur in each topic. We use
augment() it uses a model to add information to each observation in the
original data.

soar_assignments <- augment(lda_soar_data, data = cast_dtm)
soar_assignments

# A tibble: 838 x 4
   document term          count .topic
   <chr>    <chr>         <dbl>  <dbl>
 1 1        dr                1      3
 2 2        mercedes          1      4
 3 3        kamoru            1      8
 4 4        2023              1      8
 5 1        deeper            1      3
 6 2        understanding     1      4
 7 3        quantitative      1      8
 8 4        qualitative       1      8
 9 5        research          1      4
10 28       research          1      3
# ... with 828 more rows

Look for the most common differences within each of the model
topics.

beta_wide <- soar_topics %>%
  mutate(topic = paste0("topic", topic)) %>%
  pivot_wider(names_from = topic, values_from = beta) %>% 
  filter(topic1 > .001 | topic2 > .001) %>%
  mutate(log_ratio = log2(topic2 / topic1))

beta_wide

# A tibble: 78 x 12
   term       topic1    topic2    topic3    topic4    topic5    topic6
   <chr>       <dbl>     <dbl>     <dbl>     <dbl>     <dbl>     <dbl>
 1 disser~ 2.16e-180 1.22e-  2 6.22e- 83 3.75e-  2 1.00e- 72 1.25e-181
 2 fills   1.84e-225 1.22e-  2 8.17e-236 4.31e-227 5.92e-229 2.31e-226
 3 learnh~ 2.72e-242 1.22e-  2 1.80e-251 7.58e-146 3.40e-243 5.29e-246
 4 calling 1.23e-  2 1.38e-220 2.77e-213 6.49e-219 2.26e-222 7.83e-220
 5 succes~ 2.29e-163 3.66e-  2 6.43e-172 2.46e-161 6.45e- 29 5.38e-162
 6 mental~ 2.14e-188 3.66e-  2 3.95e- 80 3.05e-150 4.84e-190 1.31e-189
 7 excell~ 2.39e-242 1.22e-  2 1.16e-251 4.81e-145 2.56e-244 2.99e-245
 8 edtpa   1.23e-  2 2.86e-221 6.75e-214 3.09e-219 1.07e-222 1.26e-220
 9 finding 1.49e-176 2.44e-  2 2.54e-185 1.15e- 50 6.56e-179 2.06e-176
10 balance 2.94e-157 3.66e-  2 3.46e-167 6.24e- 56 2.04e- 58 7.27e-157
# ... with 68 more rows, and 5 more variables: topic7 <dbl>,
#   topic8 <dbl>, topic9 <dbl>, topic10 <dbl>, log_ratio <dbl>
…
