Jeanne McClure: Investigating Closeness in a MOOC-Ed discussion group
…
Import edges:

Show code

dlt1_ties <- read_csv("~/r-projects/mccluredistill/_posts/2022-04-03-closeness-betweeness-socialnetworking/data/dlt1-edges.csv", 
                      col_types = cols(Sender = col_character(), 
                                       Receiver = col_character(), 
                                       `Category Text` = col_skip(), 
                                       `Comment ID` = col_character(), 
                                       `Discussion ID` = col_character())) |>
  clean_names()

dlt1_ties

# A tibble: 2,529 x 9
   sender receiver timestamp    discussion_title      discussion_cate~
   <chr>  <chr>    <chr>        <chr>                 <chr>           
 1 360    444      4/4/13 16:32 Most important chang~ Group N         
 2 356    444      4/4/13 18:45 Most important chang~ Group D-L       
 3 356    444      4/4/13 18:47 DLT ResourcesCommen~ Group D-L       
 4 344    444      4/4/13 18:55 Most important chang~ Group O-T       
 5 392    444      4/4/13 19:13 Most important chang~ Group U-Z       
 6 219    444      4/4/13 19:16 Most important chang~ Group M         
 7 318    444      4/4/13 19:26 Most important chang~ Group M         
 8 4      444      4/4/13 19:44 Most important chang~ Group N         
 9 355    356      4/4/13 20:12 DLT ResourcesCommen~ Group D-L       
10 355    444      4/4/13 20:13 Most important chang~ Group D-L       
# ... with 2,519 more rows, and 4 more variables:
#   parent_category <chr>, discussion_identifier <chr>,
#   comment_id <chr>, discussion_id <chr>

Add node attributes:

Show code

dlt1_actors <- read_csv("data/dlt1-nodes.csv", 
                        col_types = cols(UID = col_character(), 
                                       Facilitator = col_character(), 
                                       `expert` = col_character(), 
                                       `connect` = col_character())) |>
  clean_names()

dlt1_actors

# A tibble: 445 x 13
   uid   facilitator role1      experience experience2 grades location
   <chr> <chr>       <chr>           <dbl> <chr>       <chr>  <chr>   
 1 1     0           libmedia            1 6 to 10     secon~ VA      
 2 2     0           classteac~          1 6 to 10     secon~ FL      
 3 3     0           districta~          2 11 to 20    gener~ PA      
 4 4     0           classteac~          2 11 to 20    middle NC      
 5 5     0           otheredpr~          3 20+         gener~ AL      
 6 6     0           classteac~          1 4 to 5      gener~ AL      
 7 7     0           instructi~          2 11 to 20    gener~ SD      
 8 8     0           specialed           1 6 to 10     secon~ BE      
 9 9     0           classteac~          1 6 to 10     middle NC      
10 10    0           schooladm~          2 11 to 20    middle NC      
# ... with 435 more rows, and 6 more variables: region <chr>,
#   country <chr>, group <chr>, gender <chr>, expert <chr>,
#   connect <chr>
…
Show code

dlt1_network <- dlt1_network |>
  activate(nodes) |>
  mutate(size = local_size())

dlt1_network |> 
  as_tibble() |>
  arrange(desc(size)) |> 
  select(uid, facilitator, size)

# A tibble: 445 x 3
   uid   facilitator  size
   <chr> <chr>       <dbl>
 1 444   1             295
 2 445   1             160
 3 44    0              61
 4 11    0              51
 5 7     0              42
 6 30    0              42
 7 19    0              39
 8 60    0              39
 9 36    0              37
10 432   0              36
# ... with 435 more rows
…
Show code

dlt1_network <- dlt1_network |>
  activate(nodes) |>
  mutate(in_degree = centrality_degree(mode = "in"),
         out_degree = centrality_degree(mode = "out"))
  
dlt1_network |> 
  as_tibble()

# A tibble: 445 x 17
   uid   facilitator role1      experience experience2 grades location
   <chr> <chr>       <chr>           <dbl> <chr>       <chr>  <chr>   
 1 1     0           libmedia            1 6 to 10     secon~ VA      
 2 2     0           classteac~          1 6 to 10     secon~ FL      
 3 3     0           districta~          2 11 to 20    gener~ PA      
 4 4     0           classteac~          2 11 to 20    middle NC      
 5 5     0           otheredpr~          3 20+         gener~ AL      
 6 6     0           classteac~          1 4 to 5      gener~ AL      
 7 7     0           instructi~          2 11 to 20    gener~ SD      
 8 8     0           specialed           1 6 to 10     secon~ BE      
 9 9     0           classteac~          1 6 to 10     middle NC      
10 10    0           schooladm~          2 11 to 20    middle NC      
# ... with 435 more rows, and 10 more variables: region <chr>,
#   country <chr>, group <chr>, gender <chr>, expert <chr>,
#   connect <chr>, strong_component <int>, size <dbl>,
#   in_degree <dbl>, out_degree <dbl>
…
